/Ene5\XS210 ESMR 5.0

1-3:0.2.8(50)
0-0:1.0.0(210118140301W)                                //Timestamp YYMMDDhhmmssX, X=S => Summer time, X=W => Wintertime
0-0:96.1.1(4530303437303030303331363839323138)          //Equipment Id
1-0:1.8.1(003194.708*kWh)                               //Meter reading Electrics - consumption low tariff
1-0:1.8.2(002246.337*kWh)                               //Meter reading Electrics - consumption high tariff
1-0:2.8.1(000000.006*kWh)                               //Meter reading Electrics - return low tariff
1-0:2.8.2(000000.000*kWh)                               //Meter reading Electrics - return high tariff
0-0:96.14.0(0002)                                       //Tariff indicator electricity
1-0:1.7.0(00.243*kW)                                    //Meter reading Electrics - Actual consumption
1-0:2.7.0(00.000*kW)                                    //Meter reading Electrics - Actual return
0-0:96.7.21(00262)                                      //Number of Power Failures
0-0:96.7.9(00001)                                       //Number of long Power Failures
1-0:99.97.0(0)(0-0:96.7.19)
1-0:32.32.0(00001)                                      //Number of voltage sags in phase L1
1-0:32.36.0(00000)
0-0:96.13.0()
1-0:32.7.0(231.0*V)                                     //Instantaneous voltage L1
1-0:31.7.0(001*A)                                       //Instantaneous current L1
1-0:21.7.0(00.243*kW)
1-0:22.7.0(00.000*kW)
0-1:24.1.0(003)                                         // Gas device type
0-1:96.1.0(4730303533303033373739353131363138)          // Gas-Device ID
0-1:24.2.1(210118140000W)(02587.283*m3)                 // Gas Usage -- with timestamp
!3034
/Ene5\XS210 ESMR 5.0

1-3:0.2.8(50)
0-0:1.0.0(210118140302W)
0-0:96.1.1(4530303437303030303331363839323138)
1-0:1.8.1(003194.708*kWh)
1-0:1.8.2(002246.337*kWh)
1-0:2.8.1(000000.006*kWh)
1-0:2.8.2(000000.000*kWh)
0-0:96.14.0(0002)
1-0:1.7.0(00.262*kW)
1-0:2.7.0(00.000*kW)
0-0:96.7.21(00262)
0-0:96.7.9(00001)
1-0:99.97.0(0)(0-0:96.7.19)
1-0:32.32.0(00001)
1-0:32.36.0(00000)
0-0:96.13.0()
1-0:32.7.0(231.0*V)
1-0:31.7.0(001*A)
1-0:21.7.0(00.262*kW)
1-0:22.7.0(00.000*kW)
0-1:24.1.0(003)
0-1:96.1.0(4730303533303033373739353131363138)
0-1:24.2.1(210118140000W)(02587.283*m3)
!2D0B
/Ene5\XS210 ESMR 5.0

1-3:0.2.8(50)
0-0:1.0.0(210118140303W)
0-0:96.1.1(4530303437303030303331363839323138)
1-0:1.8.1(003194.708*kWh)
1-0:1.8.2(002246.337*kWh)
1-0:2.8.1(000000.006*kWh)
1-0:2.8.2(000000.000*kWh)
0-0:96.14.0(0002)
1-0:1.7.0(00.237*kW)
1-0:2.7.0(00.000*kW)
0-0:96.7.21(00262)
0-0:96.7.9(00001)
1-0:99.97.0(0)(0-0:96.7.19)
1-0:32.32.0(00001)
1-0:32.36.0(00000)
0-0:96.13.0()
1-0:32.7.0(231.0*V)
1-0:31.7.0(001*A)
1-0:21.7.0(00.237*kW)
1-0:22.7.0(00.000*kW)
0-1:24.1.0(003)
0-1:96.1.0(4730303533303033373739353131363138)
0-1:24.2.1(210118140000W)(02587.283*m3)
!CCFC
/Ene5\XS210 ESMR 5.0

1-3:0.2.8(50)
0-0:1.0.0(210118140304W)
0-0:96.1.1(4530303437303030303331363839323138)
1-0:1.8.1(003194.708*kWh)
1-0:1.8.2(002246.337*kWh)
1-0:2.8.1(000000.006*kWh)
1-0:2.8.2(000000.000*kWh)
0-0:96.14.0(0002)
1-0:1.7.0(00.253*kW)
1-0:2.7.0(00.000*kW)
0-0:96.7.21(00262)
0-0:96.7.9(00001)
1-0:99.97.0(0)(0-0:96.7.19)
1-0:32.32.0(00001)
1-0:32.36.0(00000)
0-0:96.13.0()
1-0:32.7.0(231.0*V)
1-0:31.7.0(001*A)
1-0:21.7.0(00.253*kW)
1-0:22.7.0(00.000*kW)
0-1:24.1.0(003)
0-1:96.1.0(4730303533303033373739353131363138)
0-1:24.2.1(210118140000W)(02587.283*m3)
!2D76
/Ene5\XS210 ESMR 5.0

1-3:0.2.8(50)
0-0:1.0.0(210118140305W)
0-0:96.1.1(4530303437303030303331363839323138)
1-0:1.8.1(003194.708*kWh)
1-0:1.8.2(002246.337*kWh)
1-0:2.8.1(000000.006*kWh)
1-0:2.8.2(000000.000*kWh)
0-0:96.14.0(0002)
1-0:1.7.0(00.238*kW)
1-0:2.7.0(00.000*kW)
0-0:96.7.21(00262)
0-0:96.7.9(00001)
1-0:99.97.0(0)(0-0:96.7.19)
1-0:32.32.0(00001)
1-0:32.36.0(00000)
0-0:96.13.0()
1-0:32.7.0(231.0*V)
1-0:31.7.0(001*A)
1-0:21.7.0(00.238*kW)
1-0:22.7.0(00.000*kW)
0-1:24.1.0(003)
0-1:96.1.0(4730303533303033373739353131363138)
0-1:24.2.1(210118140000W)(02587.283*m3)
!1E9F
/Ene5\XS210 ESMR 5.0

1-3:0.2.8(50)
0-0:1.0.0(210118140306W)
0-0:96.1.1(4530303437303030303331363839323138)
1-0:1.8.1(003194.708*kWh)
1-0:1.8.2(002246.337*kWh)
1-0:2.8.1(000000.006*kWh)
1-0:2.8.2(000000.000*kWh)
0-0:96.14.0(0002)
1-0:1.7.0(00.263*kW)
1-0:2.7.0(00.000*kW)
0-0:96.7.21(00262)
0-0:96.7.9(00001)
1-0:99.97.0(0)(0-0:96.7.19)
1-0:32.32.0(00001)
1-0:32.36.0(00000)
0-0:96.13.0()
1-0:32.7.0(231.0*V)
1-0:31.7.0(001*A)
1-0:21.7.0(00.263*kW)
1-0:22.7.0(00.000*kW)
0-1:24.1.0(003)
0-1:96.1.0(4730303533303033373739353131363138)
0-1:24.2.1(210118140000W)(02587.283*m3)
!DE78
/Ene5\XS210 ESMR 5.0

1-3:0.2.8(50)
0-0:1.0.0(210118140307W)
0-0:96.1.1(4530303437303030303331363839323138)
1-0:1.8.1(003194.708*kWh)
1-0:1.8.2(002246.337*kWh)
1-0:2.8.1(000000.006*kWh)
1-0:2.8.2(000000.000*kWh)
0-0:96.14.0(0002)
1-0:1.7.0(00.239*kW)
1-0:2.7.0(00.000*kW)
0-0:96.7.21(00262)
0-0:96.7.9(00001)
1-0:99.97.0(0)(0-0:96.7.19)
1-0:32.32.0(00001)
1-0:32.36.0(00000)
0-0:96.13.0()
1-0:32.7.0(231.0*V)
1-0:31.7.0(001*A)
1-0:21.7.0(00.239*kW)
1-0:22.7.0(00.000*kW)
0-1:24.1.0(003)
0-1:96.1.0(4730303533303033373739353131363138)
0-1:24.2.1(210118140000W)(02587.283*m3)
!0169
/Ene5\XS210 ESMR 5.0

1-3:0.2.8(50)
0-0:1.0.0(210118140308W)
0-0:96.1.1(4530303437303030303331363839323138)
1-0:1.8.1(003194.708*kWh)
1-0:1.8.2(002246.337*kWh)
1-0:2.8.1(000000.006*kWh)
1-0:2.8.2(000000.000*kWh)
0-0:96.14.0(0002)
1-0:1.7.0(00.260*kW)
1-0:2.7.0(00.000*kW)
0-0:96.7.21(00262)
0-0:96.7.9(00001)
1-0:99.97.0(0)(0-0:96.7.19)
1-0:32.32.0(00001)
1-0:32.36.0(00000)
0-0:96.13.0()
1-0:32.7.0(231.0*V)
1-0:31.7.0(001*A)
1-0:21.7.0(00.065*kW)
1-0:22.7.0(00.000*kW)
0-1:24.1.0(003)
0-1:96.1.0(4730303533303033373739353131363138)
0-1:24.2.1(210118140000W)(02587.283*m3)
!A0F9
/Ene5\XS210 ESMR 5.0

1-3:0.2.8(50)
0-0:1.0.0(210118140309W)
0-0:96.1.1(4530303437303030303331363839323138)
1-0:1.8.1(003194.708*kWh)
1-0:1.8.2(002246.337*kWh)
1-0:2.8.1(000000.006*kWh)
1-0:2.8.2(000000.000*kWh)
0-0:96.14.0(0002)
1-0:1.7.0(00.299*kW)
1-0:2.7.0(00.000*kW)
0-0:96.7.21(00262)
0-0:96.7.9(00001)
1-0:99.97.0(0)(0-0:96.7.19)
1-0:32.32.0(00001)
1-0:32.36.0(00000)
0-0:96.13.0()
1-0:32.7.0(231.0*V)
1-0:31.7.0(001*A)
1-0:21.7.0(00.299*kW)
1-0:22.7.0(00.000*kW)
0-1:24.1.0(003)
0-1:96.1.0(4730303533303033373739353131363138)
0-1:24.2.1(210118140000W)(02587.283*m3)
!30C9
/Ene5\XS210 ESMR 5.0

1-3:0.2.8(50)
0-0:1.0.0(210118140310W)
0-0:96.1.1(4530303437303030303331363839323138)
1-0:1.8.1(003194.708*kWh)
1-0:1.8.2(002246.337*kWh)
1-0:2.8.1(000000.006*kWh)
1-0:2.8.2(000000.000*kWh)
0-0:96.14.0(0002)
1-0:1.7.0(00.271*kW)
1-0:2.7.0(00.000*kW)
0-0:96.7.21(00262)
0-0:96.7.9(00001)
1-0:99.97.0(0)(0-0:96.7.19)
1-0:32.32.0(00001)
1-0:32.36.0(00000)
0-0:96.13.0()
1-0:32.7.0(231.0*V)
1-0:31.7.0(001*A)
1-0:21.7.0(00.271*kW)
1-0:22.7.0(00.000*kW)
0-1:24.1.0(003)
0-1:96.1.0(4730303533303033373739353131363138)
0-1:24.2.1(210118140000W)(02587.283*m3)
!CD1E
/Ene5\XS210 ESMR 5.0

1-3:0.2.8(50)
0-0:1.0.0(210118140311W)
0-0:96.1.1(4530303437303030303331363839323138)
1-0:1.8.1(003194.708*kWh)
1-0:1.8.2(002246.337*kWh)
1-0:2.8.1(000000.006*kWh)
1-0:2.8.2(000000.000*kWh)
0-0:96.14.0(0002)
1-0:1.7.0(00.247*kW)
1-0:2.7.0(00.000*kW)
0-0:96.7.21(00262)
0-0:96.7.9(00001)
1-0:99.97.0(0)(0-0:96.7.19)
1-0:32.32.0(00001)
1-0:32.36.0(00000)
0-0:96.13.0()
1-0:32.7.0(231.0*V)
1-0:31.7.0(001*A)
1-0:21.7.0(00.247*kW)
1-0:22.7.0(00.000*kW)
0-1:24.1.0(003)
0-1:96.1.0(4730303533303033373739353131363138)
0-1:24.2.1(210118140000W)(02587.283*m3)
!316E
/Ene5\XS210 ESMR 5.0

1-3:0.2.8(50)
0-0:1.0.0(210118140312W)
0-0:96.1.1(4530303437303030303331363839323138)
1-0:1.8.1(003194.708*kWh)
1-0:1.8.2(002246.337*kWh)
1-0:2.8.1(000000.006*kWh)
1-0:2.8.2(000000.000*kWh)
0-0:96.14.0(0002)
1-0:1.7.0(00.244*kW)
1-0:2.7.0(00.000*kW)
0-0:96.7.21(00262)
0-0:96.7.9(00001)
1-0:99.97.0(0)(0-0:96.7.19)
1-0:32.32.0(00001)
1-0:32.36.0(00000)
0-0:96.13.0()
1-0:32.7.0(231.0*V)
1-0:31.7.0(001*A)
1-0:21.7.0(00.244*kW)
1-0:22.7.0(00.000*kW)
0-1:24.1.0(003)
0-1:96.1.0(4730303533303033373739353131363138)
0-1:24.2.1(210118140000W)(02587.283*m3)
!2BB2
/Ene5\XS210 ESMR 5.0

1-3:0.2.8(50)
0-0:1.0.0(210118140313W)
0-0:96.1.1(4530303437303030303331363839323138)
1-0:1.8.1(003194.708*kWh)
1-0:1.8.2(002246.337*kWh)
1-0:2.8.1(000000.006*kWh)
1-0:2.8.2(000000.000*kWh)
0-0:96.14.0(0002)
1-0:1.7.0(00.246*kW)
1-0:2.7.0(00.000*kW)
0-0:96.7.21(00262)
0-0:96.7.9(00001)
1-0:99.97.0(0)(0-0:96.7.19)
1-0:32.32.0(00001)
1-0:32.36.0(00000)
0-0:96.13.0()
1-0:32.7.0(231.0*V)
1-0:31.7.0(001*A)
1-0:21.7.0(00.118*kW)
1-0:22.7.0(00.000*kW)
0-1:24.1.0(003)
0-1:96.1.0(4730303533303033373739353131363138)
0-1:24.2.1(210118140000W)(02587.283*m3)
!DEE1
/Ene5\XS210 ESMR 5.0

1-3:0.2.8(50)
0-0:1.0.0(210118140314W)
0-0:96.1.1(4530303437303030303331363839323138)
1-0:1.8.1(003194.708*kWh)
1-0:1.8.2(002246.337*kWh)
1-0:2.8.1(000000.006*kWh)
1-0:2.8.2(000000.000*kWh)
0-0:96.14.0(0002)
1-0:1.7.0(00.236*kW)
1-0:2.7.0(00.000*kW)
0-0:96.7.21(00262)
0-0:96.7.9(00001)
1-0:99.97.0(0)(0-0:96.7.19)
1-0:32.32.0(00001)
1-0:32.36.0(00000)
0-0:96.13.0()
1-0:32.7.0(231.0*V)
1-0:31.7.0(001*A)
1-0:21.7.0(00.236*kW)
1-0:22.7.0(00.000*kW)
0-1:24.1.0(003)
0-1:96.1.0(4730303533303033373739353131363138)
0-1:24.2.1(210118140000W)(02587.283*m3)
!7940
/Ene5\XS210 ESMR 5.0

1-3:0.2.8(50)
0-0:1.0.0(210118140315W)
0-0:96.1.1(4530303437303030303331363839323138)
1-0:1.8.1(003194.708*kWh)
1-0:1.8.2(002246.337*kWh)
1-0:2.8.1(000000.006*kWh)
1-0:2.8.2(000000.000*kWh)
0-0:96.14.0(0002)
1-0:1.7.0(00.234*kW)
1-0:2.7.0(00.000*kW)
0-0:96.7.21(00262)
0-0:96.7.9(00001)
1-0:99.97.0(0)(0-0:96.7.19)
1-0:32.32.0(00001)
1-0:32.36.0(00000)
0-0:96.13.0()
1-0:32.7.0(231.0*V)
1-0:31.7.0(001*A)
1-0:21.7.0(00.234*kW)
1-0:22.7.0(00.000*kW)
0-1:24.1.0(003)
0-1:96.1.0(4730303533303033373739353131363138)
0-1:24.2.1(210118140000W)(02587.283*m3)
!7C6A
/Ene5\XS210 ESMR 5.0

1-3:0.2.8(50)
0-0:1.0.0(210118140316W)
0-0:96.1.1(4530303437303030303331363839323138)
1-0:1.8.1(003194.708*kWh)
1-0:1.8.2(002246.338*kWh)
1-0:2.8.1(000000.006*kWh)
1-0:2.8.2(000000.000*kWh)
0-0:96.14.0(0002)
1-0:1.7.0(00.237*kW)
1-0:2.7.0(00.000*kW)
0-0:96.7.21(00262)
0-0:96.7.9(00001)
1-0:99.97.0(0)(0-0:96.7.19)
1-0:32.32.0(00001)
1-0:32.36.0(00000)
0-0:96.13.0()
1-0:32.7.0(231.0*V)
1-0:31.7.0(001*A)
1-0:21.7.0(00.237*kW)
1-0:22.7.0(00.000*kW)
0-1:24.1.0(003)
0-1:96.1.0(4730303533303033373739353131363138)
0-1:24.2.1(210118140000W)(02587.283*m3)
!4225
/Ene5\XS210 ESMR 5.0

1-3:0.2.8(50)
0-0:1.0.0(210118140317W)
0-0:96.1.1(4530303437303030303331363839323138)
1-0:1.8.1(003194.708*kWh)
1-0:1.8.2(002246.338*kWh)
1-0:2.8.1(000000.006*kWh)
1-0:2.8.2(000000.000*kWh)
0-0:96.14.0(0002)
1-0:1.7.0(00.237*kW)
1-0:2.7.0(00.000*kW)
0-0:96.7.21(00262)
0-0:96.7.9(00001)
1-0:99.97.0(0)(0-0:96.7.19)
1-0:32.32.0(00001)
1-0:32.36.0(00000)
0-0:96.13.0()
1-0:32.7.0(231.0*V)
1-0:31.7.0(001*A)
1-0:21.7.0(00.237*kW)
1-0:22.7.0(00.000*kW)
0-1:24.1.0(003)
0-1:96.1.0(4730303533303033373739353131363138)
0-1:24.2.1(210118140000W)(02587.283*m3)
!0FE4
/Ene5\XS210 ESMR 5.0

1-3:0.2.8(50)
0-0:1.0.0(210118140318W)
0-0:96.1.1(4530303437303030303331363839323138)
1-0:1.8.1(003194.708*kWh)
1-0:1.8.2(002246.338*kWh)
1-0:2.8.1(000000.006*kWh)
1-0:2.8.2(000000.000*kWh)
0-0:96.14.0(0002)
1-0:1.7.0(00.238*kW)
1-0:2.7.0(00.000*kW)
0-0:96.7.21(00262)
0-0:96.7.9(00001)
1-0:99.97.0(0)(0-0:96.7.19)
1-0:32.32.0(00001)
1-0:32.36.0(00000)
0-0:96.13.0()
1-0:32.7.0(231.0*V)
1-0:31.7.0(001*A)
1-0:21.7.0(00.238*kW)
1-0:22.7.0(00.000*kW)
0-1:24.1.0(003)
0-1:96.1.0(4730303533303033373739353131363138)
0-1:24.2.1(210118140000W)(02587.283*m3)
!7E48
/Ene5\XS210 ESMR 5.0

1-3:0.2.8(50)
0-0:1.0.0(210118140319W)
0-0:96.1.1(4530303437303030303331363839323138)
1-0:1.8.1(003194.708*kWh)
1-0:1.8.2(002246.338*kWh)
1-0:2.8.1(000000.006*kWh)
1-0:2.8.2(000000.000*kWh)
0-0:96.14.0(0002)
1-0:1.7.0(00.264*kW)
1-0:2.7.0(00.000*kW)
0-0:96.7.21(00262)
0-0:96.7.9(00001)
1-0:99.97.0(0)(0-0:96.7.19)
1-0:32.32.0(00001)
1-0:32.36.0(00000)
0-0:96.13.0()
1-0:32.7.0(231.0*V)
1-0:31.7.0(001*A)
1-0:21.7.0(00.264*kW)
1-0:22.7.0(00.000*kW)
0-1:24.1.0(003)
0-1:96.1.0(4730303533303033373739353131363138)
0-1:24.2.1(210118140000W)(02587.283*m3)
!7864
/Ene5\XS210 ESMR 5.0

1-3:0.2.8(50)
0-0:1.0.0(210118140320W)
0-0:96.1.1(4530303437303030303331363839323138)
1-0:1.8.1(003194.708*kWh)
1-0:1.8.2(002246.338*kWh)
1-0:2.8.1(000000.006*kWh)
1-0:2.8.2(000000.000*kWh)
0-0:96.14.0(0002)
1-0:1.7.0(00.241*kW)
1-0:2.7.0(00.000*kW)
0-0:96.7.21(00262)
0-0:96.7.9(00001)
1-0:99.97.0(0)(0-0:96.7.19)
1-0:32.32.0(00001)
1-0:32.36.0(00000)
0-0:96.13.0()
1-0:32.7.0(231.0*V)
1-0:31.7.0(001*A)
1-0:21.7.0(00.241*kW)
1-0:22.7.0(00.000*kW)
0-1:24.1.0(003)
0-1:96.1.0(4730303533303033373739353131363138)
0-1:24.2.1(210118140000W)(02587.283*m3)
!7096
/Ene5\XS210 ESMR 5.0

1-3:0.2.8(50)
0-0:1.0.0(210118140321W)
0-0:96.1.1(4530303437303030303331363839323138)
1-0:1.8.1(003194.708*kWh)
1-0:1.8.2(002246.338*kWh)
1-0:2.8.1(000000.006*kWh)
1-0:2.8.2(000000.000*kWh)
0-0:96.14.0(0002)
1-0:1.7.0(00.249*kW)
1-0:2.7.0(00.000*kW)
0-0:96.7.21(00262)
0-0:96.7.9(00001)
1-0:99.97.0(0)(0-0:96.7.19)
1-0:32.32.0(00001)
1-0:32.36.0(00000)
0-0:96.13.0()
1-0:32.7.0(231.0*V)
1-0:31.7.0(001*A)
1-0:21.7.0(00.249*kW)
1-0:22.7.0(00.000*kW)
0-1:24.1.0(003)
0-1:96.1.0(4730303533303033373739353131363138)
0-1:24.2.1(210118140000W)(02587.283*m3)
!5EF8
/Ene5\XS210 ESMR 5.0

1-3:0.2.8(50)
0-0:1.0.0(210118140322W)
0-0:96.1.1(4530303437303030303331363839323138)
1-0:1.8.1(003194.708*kWh)
1-0:1.8.2(002246.338*kWh)
1-0:2.8.1(000000.006*kWh)
1-0:2.8.2(000000.000*kWh)
0-0:96.14.0(0002)
1-0:1.7.0(00.240*kW)
1-0:2.7.0(00.000*kW)
0-0:96.7.21(00262)
0-0:96.7.9(00001)
1-0:99.97.0(0)(0-0:96.7.19)
1-0:32.32.0(00001)
1-0:32.36.0(00000)
0-0:96.13.0()
1-0:32.7.0(231.0*V)
1-0:31.7.0(001*A)
1-0:21.7.0(00.240*kW)
1-0:22.7.0(00.000*kW)
0-1:24.1.0(003)
0-1:96.1.0(4730303533303033373739353131363138)
0-1:24.2.1(210118140000W)(02587.283*m3)
!6F60
/Ene5\XS210 ESMR 5.0

1-3:0.2.8(50)
0-0:1.0.0(210118140323W)
0-0:96.1.1(4530303437303030303331363839323138)
1-0:1.8.1(003194.708*kWh)
1-0:1.8.2(002246.338*kWh)
1-0:2.8.1(000000.006*kWh)
1-0:2.8.2(000000.000*kWh)
0-0:96.14.0(0002)
1-0:1.7.0(00.238*kW)
1-0:2.7.0(00.000*kW)
0-0:96.7.21(00262)
0-0:96.7.9(00001)
1-0:99.97.0(0)(0-0:96.7.19)
1-0:32.32.0(00001)
1-0:32.36.0(00000)
0-0:96.13.0()
1-0:32.7.0(231.0*V)
1-0:31.7.0(001*A)
1-0:21.7.0(00.238*kW)
1-0:22.7.0(00.000*kW)
0-1:24.1.0(003)
0-1:96.1.0(4730303533303033373739353131363138)
0-1:24.2.1(210118140000W)(02587.283*m3)
!B792
/Ene5\XS210 ESMR 5.0

1-3:0.2.8(50)
0-0:1.0.0(210118140324W)
0-0:96.1.1(4530303437303030303331363839323138)
1-0:1.8.1(003194.708*kWh)
1-0:1.8.2(002246.338*kWh)
1-0:2.8.1(000000.006*kWh)
1-0:2.8.2(000000.000*kWh)
0-0:96.14.0(0002)
1-0:1.7.0(00.238*kW)
1-0:2.7.0(00.000*kW)
0-0:96.7.21(00262)
0-0:96.7.9(00001)
1-0:99.97.0(0)(0-0:96.7.19)
1-0:32.32.0(00001)
1-0:32.36.0(00000)
0-0:96.13.0()
1-0:32.7.0(231.0*V)
1-0:31.7.0(001*A)
1-0:21.7.0(00.238*kW)
1-0:22.7.0(00.000*kW)
0-1:24.1.0(003)
0-1:96.1.0(4730303533303033373739353131363138)
0-1:24.2.1(210118140000W)(02587.283*m3)
!16D6
/Ene5\XS210 ESMR 5.0

1-3:0.2.8(50)
0-0:1.0.0(210118140325W)
0-0:96.1.1(4530303437303030303331363839323138)
1-0:1.8.1(003194.708*kWh)
1-0:1.8.2(002246.338*kWh)
1-0:2.8.1(000000.006*kWh)
1-0:2.8.2(000000.000*kWh)
0-0:96.14.0(0002)
1-0:1.7.0(00.243*kW)
1-0:2.7.0(00.000*kW)
0-0:96.7.21(00262)
0-0:96.7.9(00001)
1-0:99.97.0(0)(0-0:96.7.19)
1-0:32.32.0(00001)
1-0:32.36.0(00000)
0-0:96.13.0()
1-0:32.7.0(231.0*V)
1-0:31.7.0(001*A)
1-0:21.7.0(00.243*kW)
1-0:22.7.0(00.000*kW)
0-1:24.1.0(003)
0-1:96.1.0(4730303533303033373739353131363138)
0-1:24.2.1(210118140000W)(02587.283*m3)
!02BB
/Ene5\XS210 ESMR 5.0

1-3:0.2.8(50)
0-0:1.0.0(210118140326W)
0-0:96.1.1(4530303437303030303331363839323138)
1-0:1.8.1(003194.708*kWh)
1-0:1.8.2(002246.338*kWh)
1-0:2.8.1(000000.006*kWh)
1-0:2.8.2(000000.000*kWh)
0-0:96.14.0(0002)
1-0:1.7.0(00.246*kW)
1-0:2.7.0(00.000*kW)
0-0:96.7.21(00262)
0-0:96.7.9(00001)
1-0:99.97.0(0)(0-0:96.7.19)
1-0:32.32.0(00001)
1-0:32.36.0(00000)
0-0:96.13.0()
1-0:32.7.0(231.0*V)
1-0:31.7.0(001*A)
1-0:21.7.0(00.123*kW)
1-0:22.7.0(00.000*kW)
0-1:24.1.0(003)
0-1:96.1.0(4730303533303033373739353131363138)
0-1:24.2.1(210118140000W)(02587.283*m3)
!C6FB
/Ene5\XS210 ESMR 5.0

1-3:0.2.8(50)
0-0:1.0.0(210118140327W)
0-0:96.1.1(4530303437303030303331363839323138)
1-0:1.8.1(003194.708*kWh)
1-0:1.8.2(002246.338*kWh)
1-0:2.8.1(000000.006*kWh)
1-0:2.8.2(000000.000*kWh)
0-0:96.14.0(0002)
1-0:1.7.0(00.245*kW)
1-0:2.7.0(00.000*kW)
0-0:96.7.21(00262)
0-0:96.7.9(00001)
1-0:99.97.0(0)(0-0:96.7.19)
1-0:32.32.0(00001)
1-0:32.36.0(00000)
0-0:96.13.0()
1-0:32.7.0(231.0*V)
1-0:31.7.0(001*A)
1-0:21.7.0(00.245*kW)
1-0:22.7.0(00.000*kW)
0-1:24.1.0(003)
0-1:96.1.0(4730303533303033373739353131363138)
0-1:24.2.1(210118140000W)(02587.283*m3)
!4004
/Ene5\XS210 ESMR 5.0

1-3:0.2.8(50)
0-0:1.0.0(210118140328W)
0-0:96.1.1(4530303437303030303331363839323138)
1-0:1.8.1(003194.708*kWh)
1-0:1.8.2(002246.338*kWh)
1-0:2.8.1(000000.006*kWh)
1-0:2.8.2(000000.000*kWh)
0-0:96.14.0(0002)
1-0:1.7.0(00.240*kW)
1-0:2.7.0(00.000*kW)
0-0:96.7.21(00262)
0-0:96.7.9(00001)
1-0:99.97.0(0)(0-0:96.7.19)
1-0:32.32.0(00001)
1-0:32.36.0(00000)
0-0:96.13.0()
1-0:32.7.0(231.0*V)
1-0:31.7.0(001*A)
1-0:21.7.0(00.240*kW)
1-0:22.7.0(00.000*kW)
0-1:24.1.0(003)
0-1:96.1.0(4730303533303033373739353131363138)
0-1:24.2.1(210118140000W)(02587.283*m3)
!1AEC
/Ene5\XS210 ESMR 5.0

1-3:0.2.8(50)
0-0:1.0.0(210118140329W)
0-0:96.1.1(4530303437303030303331363839323138)
1-0:1.8.1(003194.708*kWh)
1-0:1.8.2(002246.338*kWh)
1-0:2.8.1(000000.006*kWh)
1-0:2.8.2(000000.000*kWh)
0-0:96.14.0(0002)
1-0:1.7.0(00.237*kW)
1-0:2.7.0(00.000*kW)
0-0:96.7.21(00262)
0-0:96.7.9(00001)
1-0:99.97.0(0)(0-0:96.7.19)
1-0:32.32.0(00001)
1-0:32.36.0(00000)
0-0:96.13.0()
1-0:32.7.0(231.0*V)
1-0:31.7.0(001*A)
1-0:21.7.0(00.237*kW)
1-0:22.7.0(00.000*kW)
0-1:24.1.0(003)
0-1:96.1.0(4730303533303033373739353131363138)
0-1:24.2.1(210118140000W)(02587.283*m3)
!FCF8
/Ene5\XS210 ESMR 5.0

1-3:0.2.8(50)
0-0:1.0.0(210118140330W)
0-0:96.1.1(4530303437303030303331363839323138)
1-0:1.8.1(003194.708*kWh)
1-0:1.8.2(002246.338*kWh)
1-0:2.8.1(000000.006*kWh)
1-0:2.8.2(000000.000*kWh)
0-0:96.14.0(0002)
1-0:1.7.0(00.236*kW)
1-0:2.7.0(00.000*kW)
0-0:96.7.21(00262)
0-0:96.7.9(00001)
1-0:99.97.0(0)(0-0:96.7.19)
1-0:32.32.0(00001)
1-0:32.36.0(00000)
0-0:96.13.0()
1-0:32.7.0(231.0*V)
1-0:31.7.0(001*A)
1-0:21.7.0(00.236*kW)
1-0:22.7.0(00.000*kW)
0-1:24.1.0(003)
0-1:96.1.0(4730303533303033373739353131363138)
0-1:24.2.1(210118140000W)(02587.283*m3)
!4BCF
/Ene5\XS210 ESMR 5.0

1-3:0.2.8(50)
0-0:1.0.0(210118140331W)
0-0:96.1.1(4530303437303030303331363839323138)
1-0:1.8.1(003194.708*kWh)
1-0:1.8.2(002246.339*kWh)
1-0:2.8.1(000000.006*kWh)
1-0:2.8.2(000000.000*kWh)
0-0:96.14.0(0002)
1-0:1.7.0(00.238*kW)
1-0:2.7.0(00.000*kW)
0-0:96.7.21(00262)
0-0:96.7.9(00001)
1-0:99.97.0(0)(0-0:96.7.19)
1-0:32.32.0(00001)
1-0:32.36.0(00000)
0-0:96.13.0()
1-0:32.7.0(231.0*V)
1-0:31.7.0(001*A)
1-0:21.7.0(00.238*kW)
1-0:22.7.0(00.000*kW)
0-1:24.1.0(003)
0-1:96.1.0(4730303533303033373739353131363138)
0-1:24.2.1(210118140000W)(02587.283*m3)
!05D2
/Ene5\XS210 ESMR 5.0

1-3:0.2.8(50)
0-0:1.0.0(210118140332W)
0-0:96.1.1(4530303437303030303331363839323138)
1-0:1.8.1(003194.708*kWh)
1-0:1.8.2(002246.339*kWh)
1-0:2.8.1(000000.006*kWh)
1-0:2.8.2(000000.000*kWh)
0-0:96.14.0(0002)
1-0:1.7.0(00.241*kW)
1-0:2.7.0(00.000*kW)
0-0:96.7.21(00262)
0-0:96.7.9(00001)
1-0:99.97.0(0)(0-0:96.7.19)
1-0:32.32.0(00001)
1-0:32.36.0(00000)
0-0:96.13.0()
1-0:32.7.0(231.0*V)
1-0:31.7.0(001*A)
1-0:21.7.0(00.241*kW)
1-0:22.7.0(00.000*kW)
0-1:24.1.0(003)
0-1:96.1.0(4730303533303033373739353131363138)
0-1:24.2.1(210118140000W)(02587.283*m3)
!C2D6
/Ene5\XS210 ESMR 5.0

1-3:0.2.8(50)
0-0:1.0.0(210118140333W)
0-0:96.1.1(4530303437303030303331363839323138)
1-0:1.8.1(003194.708*kWh)
1-0:1.8.2(002246.339*kWh)
1-0:2.8.1(000000.006*kWh)
1-0:2.8.2(000000.000*kWh)
0-0:96.14.0(0002)
1-0:1.7.0(00.251*kW)
1-0:2.7.0(00.000*kW)
0-0:96.7.21(00262)
0-0:96.7.9(00001)
1-0:99.97.0(0)(0-0:96.7.19)
1-0:32.32.0(00001)
1-0:32.36.0(00000)
0-0:96.13.0()
1-0:32.7.0(231.0*V)
1-0:31.7.0(001*A)
1-0:21.7.0(00.125*kW)
1-0:22.7.0(00.000*kW)
0-1:24.1.0(003)
0-1:96.1.0(4730303533303033373739353131363138)
0-1:24.2.1(210118140000W)(02587.283*m3)
!C59E
/Ene5\XS210 ESMR 5.0

1-3:0.2.8(50)
0-0:1.0.0(210118140334W)
0-0:96.1.1(4530303437303030303331363839323138)
1-0:1.8.1(003194.708*kWh)
1-0:1.8.2(002246.339*kWh)
1-0:2.8.1(000000.006*kWh)
1-0:2.8.2(000000.000*kWh)
0-0:96.14.0(0002)
1-0:1.7.0(00.242*kW)
1-0:2.7.0(00.000*kW)
0-0:96.7.21(00262)
0-0:96.7.9(00001)
1-0:99.97.0(0)(0-0:96.7.19)
1-0:32.32.0(00001)
1-0:32.36.0(00000)
0-0:96.13.0()
1-0:32.7.0(231.0*V)
1-0:31.7.0(001*A)
1-0:21.7.0(00.242*kW)
1-0:22.7.0(00.000*kW)
0-1:24.1.0(003)
0-1:96.1.0(4730303533303033373739353131363138)
0-1:24.2.1(210118140000W)(02587.283*m3)
!E2CC
